{
  "project_info": {
    "project_number": "28331879671",
    "firebase_url": "https://disastermanagement-61203.firebaseio.com",
    "project_id": "disastermanagement-61203",
    "storage_bucket": "disastermanagement-61203.appspot.com"
  },
  "client": [
    {
      "client_info": {
        "mobilesdk_app_id": "1:28331879671:android:039c3aa9b0e02df8",
        "android_client_info": {
          "package_name": "com.crestbit.adddisasterdata"
        }
      },
      "oauth_client": [
        {
          "client_id": "28331879671-n89612qo99dcei107h9ot1k7tvaph1vp.apps.googleusercontent.com",
          "client_type": 1,
          "android_info": {
            "package_name": "com.crestbit.adddisasterdata",
            "certificate_hash": "ac8f584f2511b5de96fc4570869f639d5724e14f"
          }
        },
        {
          "client_id": "28331879671-n6f8il9rte2568g7a15a50e9st0jm2tc.apps.googleusercontent.com",
          "client_type": 3
        }
      ],
      "api_key": [
        {
          "current_key": "AIzaSyBjX8md-yrsFm7YwzHT0PPjw3WKC1ENcos"
        }
      ],
      "services": {
        "analytics_service": {
          "status": 1
        },
        "appinvite_service": {
          "status": 2,
          "other_platform_oauth_client": [
            {
              "client_id": "28331879671-n6f8il9rte2568g7a15a50e9st0jm2tc.apps.googleusercontent.com",
              "client_type": 3
            }
          ]
        },
        "ads_service": {
          "status": 2
        }
      }
    },
    {
      "client_info": {
        "mobilesdk_app_id": "1:28331879671:android:1e6d4b381ff1da47",
        "android_client_info": {
          "package_name": "com.crestbit.disastermanagement"
        }
      },
      "oauth_client": [
        {
          "client_id": "28331879671-as5ca2libs5jne39dhjgu3deaturh5p1.apps.googleusercontent.com",
          "client_type": 1,
          "android_info": {
            "package_name": "com.crestbit.disastermanagement",
            "certificate_hash": "ac8f584f2511b5de96fc4570869f639d5724e14f"
          }
        },
        {
          "client_id": "28331879671-n6f8il9rte2568g7a15a50e9st0jm2tc.apps.googleusercontent.com",
          "client_type": 3
        }
      ],
      "api_key": [
        {
          "current_key": "AIzaSyBjX8md-yrsFm7YwzHT0PPjw3WKC1ENcos"
        }
      ],
      "services": {
        "analytics_service": {
          "status": 1
        },
        "appinvite_service": {
          "status": 2,
          "other_platform_oauth_client": [
            {
              "client_id": "28331879671-n6f8il9rte2568g7a15a50e9st0jm2tc.apps.googleusercontent.com",
              "client_type": 3
            }
          ]
        },
        "ads_service": {
          "status": 2
        }
      }
    },
    {
      "client_info": {
        "mobilesdk_app_id": "1:28331879671:android:c2d8513908f1e4cc",
        "android_client_info": {
          "package_name": "com.crestbit.disasterresponseandrecovery"
        }
      },
      "oauth_client": [
        {
          "client_id": "28331879671-b6o4ihsuop0divbhmagrbc4fqmb7si6m.apps.googleusercontent.com",
          "client_type": 1,
          "android_info": {
            "package_name": "com.crestbit.disasterresponseandrecovery",
            "certificate_hash": "ac8f584f2511b5de96fc4570869f639d5724e14f"
          }
        },
        {
          "client_id": "28331879671-n6f8il9rte2568g7a15a50e9st0jm2tc.apps.googleusercontent.com",
          "client_type": 3
        }
      ],
      "api_key": [
        {
          "current_key": "AIzaSyBjX8md-yrsFm7YwzHT0PPjw3WKC1ENcos"
        }
      ],
      "services": {
        "analytics_service": {
          "status": 1
        },
        "appinvite_service": {
          "status": 2,
          "other_platform_oauth_client": [
            {
              "client_id": "28331879671-n6f8il9rte2568g7a15a50e9st0jm2tc.apps.googleusercontent.com",
              "client_type": 3
            }
          ]
        },
        "ads_service": {
          "status": 2
        }
      }
    }
  ],
  "configuration_version": "1"
}